{
	"authors": [
		"x"
	],
	"copyright": "Copyright © 2021, x",
	"dependencies": {
		"gtk-d": "~>3.9.0"
	},
    "dflags-ldc": ["-gcc=gcc12"],
	"description": "A minimal D application.",
	"license": "proprietary",
	"name": "gtkd_fahrenheit"
}
